{
  "query": {
    "helloWorld": {
      "params": [],
      "return": "String"
    },
    "testList": {
      "params": [],
      "return": "ObjectExpression"
    }
  },
  "mutation": {
    "plus": {
      "params": [
        {
          "type": "mixed",
          "name": "payload"
        },
        {
          "type": "mixed",
          "name": "conditions"
        }
      ],
      "return": "Identifier"
    }
  },
  "auth": {},
  "timestamp": 1543359560735
}
